%YAML 1.1
%TAG !u! tag:unity3d.com,2011:
--- !u!114 &11400000
MonoBehaviour:
  m_ObjectHideFlags: 0
  m_CorrespondingSourceObject: {fileID: 0}
  m_PrefabInstance: {fileID: 0}
  m_PrefabAsset: {fileID: 0}
  m_GameObject: {fileID: 0}
  m_Enabled: 1
  m_EditorHideFlags: 0
  m_Script: {fileID: 11500000, guid: 01a1b5b2102173f43ae41144007304cb, type: 3}
  m_Name: Billet_6
  m_EditorClassIdentifier: 
  sprite: {fileID: 21300000, guid: d14277a90aeae44f3859e04ca5c1860e, type: 3}
