%YAML 1.1
%TAG !u! tag:unity3d.com,2011:
--- !u!1045 &1
EditorBuildSettings:
  m_ObjectHideFlags: 0
  serializedVersion: 2
  m_Scenes:
  - enabled: 1
    path: Assets/Scenes/MainScene.unity
    guid: c48e582517be5c94e889009b7c77cb30
  - enabled: 1
    path: Assets/Scenes/MenuScene.unity
    guid: ec68a625dc7cc0d4282ec8e28b86ba93
  - enabled: 1
    path: Assets/Scenes/GameScene.unity
    guid: 2cda990e2423bbf4892e6590ba056729
  m_configObjects: {}
